{
    "exercisePushupRotations": "Liegestütz-Drehungen",
    "exerciseLunges": "Ausfallschritte",
    "exerciseHighKnees": "Knie hoch",
    "exerciseSquats": "Kniebeugen",
    "exerciseAbCrunches": "Bauchpressen",
    "exercisePushups": "Liegestütze",
    "exerciseWallSit": "Wand sitzen",
    "stepsJumpingJacks": "1. Stehe mit den Füßen zusammen und den Armen an den Seiten.\n2. Springe in eine Position, in der die Beine weit gespreizt sind und die Hände sich über Kopf berühren.\n3. Wiederhole",
    "exerciseJumpingJacks": "Hampelmänner",
    "workoutLeg": "Bein-Training",
    "workoutScientific7Minute": "Klassisches 7-Minuten-Training",
    "exerciseSidePlankLeft": "Seitenplanke links",
    "exerciseSidePlankRight": "Seitenplanke rechts",
    "exerciseSideSplitSquatsLeft": "Seitliche Kniebeugen links",
    "exerciseSideSplitSquatsRight": "Seitliche Kniebeugen rechts",
    "exercisePistolSquatLeft": "Kniebeugen links",
    "exercisePistolSquatRight": "Kniebeugen rechts",
    "exerciseSingleLegCalfRaiseLeft": "Wadenheben linkes Bein",
    "exerciseSingleLegCalfRaiseRight": "Wadenheben rechtes Bein",
    "exerciseJumpingRope": "Springseil: einfache Sprünge",
    "exerciseSplitSquatsLeft": "Geteilte Kniebeugen links",
    "exerciseSplitSquatsRight": "Geteilte Kniebeugen rechts",
    "exerciseBulgarianSplitSquatLeft": "Bulgarische geteilte Kniebeugen links",
    "exerciseBulgarianSplitSquatRight": "Bulgarische geteilte Kniebeugen rechts",
    "stepsJumpRopeBasic": "Für diese Übung benötigst Du ein Springseil. Stelle sicher, dass die Seillänge auf Deine Körpergröße abgestimmt ist. Eine Möglichkeit, dies zu überprüfen, ist, beide Griffe mit einer Hand zu greifen und sich mit einem Fuß auf die Mitte des am Boden hängenden Seils zu stellen. Wenn das Seil (ohne die Griffe) bis knapp unter Deine Brust reicht, ist die Länge richtig. Ein kürzeres Seil wäre gefährlich, da Du Dich stoßen könntest und ein längeres Seil würde eine schlechte Form ergeben.\n1. Stelle Deine Füße eng zusammen, beuge Deine Knie ein wenig, halte Deinen Kopf und Körper gerade, lege deine Ellnogen an und öffne Deine Arme.\n2. Drehe nur die Handgelenke mit so viel Kraft, dass sich das Seil dreht.\n3. Springe nur so hoch, dass das Seil unter Deinen Füßen vorbeigeht.\n4. Wiederhole ab Schritt 2.",
    "stepsLunges": "1.Stehe mit geradem Rücken\n2. Mache mit dem linken Bein einen großen Schritt nach vorne\n3. Bringe Dein Becken nach unten, bis Du mit dem rechten Knie fast den Boden berührst\n4. Bringen Dein Becken wieder nach oben\n5. Kehre in den Stand zurück, indem Du einen Schritt zurücktrittst \n6. Wiederhole die Übung und wechsel dabei jedes Mal die Beine",
    "stepsPlank": "Ausgangsposition:\n1. Beginne auf allen Vieren.\nDie Arme sind rechtwinklig angewinkelt, die Schultern befinden sich direkt über den Ellbogen.\nDer Rücken sollte gerade sein, der ganze Körper in einer geraden Linie.\n\nSchritte:\n1. Halte diese Position.",
    "exercisePlank": "Unterarmstütz",
    "stepsSingleLegCalfRaise": "1. Stelle Dich auf den Boden oder auf die Kante einer Stufe. Hebe einen Fuß an und lege den oberen Teil auf die Wade.\n2. Hebe die Fersen an, bis Du auf den Zehenspitzen stehst.\n3. Bleibe drei Sekunden lang in dieser Position und senke dann den Fuß, ohne mit der Ferse den Boden zu berühren.",
    "stepsPushupRotations": "1. Mache einen Standard-Liegestütz:\n1.a Lege Dich auf den Bauch\n1.b Lege Deine Hände in die Nähe Ihrer Ohren\n1.c Hebe Deinen Bauch mit den Armen an, bis die Arme gerade sind und halte den Rücken gerade\n1.d Biege die Arme, bis die Brust fast den Boden berührt, und achte darauf, dass der Rücken gerade ist\n1.e Hebe den Bauch wieder an und kehre zu Schritt 3 zurück\n2. Drehe Deinen Körper zur Seite, so dass der Rücken gerade ist, die untere Hand, die den Körper stützt, vollständig gestreckt ist und nur die untere Hand und der untere Fuß den Boden berühren\n3. Wiederhole und wechsel jedes Mal die Seiten in Schritt 2",
    "stepsKneelingKickback": "1.Lege Dich auf alle Viere.\n2. Drücke einen Fuß nach hinten, bis er vollständig gestreckt ist und konzentriere Dich dabei auf die Gesäßmuskeln.\n3. Bleibe eine Sekunde so und kehre dann in die Ausgangsposition zurück.\n4. Wiederhole indem Du die Füße abwechselst",
    "stepsPistolSquat": "1. Stelle Dich auf ein Bein, wobei das andere Bein gerade und leicht nach vorne zeigt.\n2. Beuge langsam ein Knie, gehen in die Hocke und halte den Rücken und das andere Bein gerade.\n3. Gehe langsam aus der Hocke, strecke das gebeugte Knie und halte das andere Bein gerade.\n4. Wiederhole",
    "exerciseKneelingKickback": "Kniende Rückschläge",
    "stepsBulgarianSplitSquat": "1. Stelle Dich aufrecht vor einen Stuhl und machen einen großen Schritt. Stelle den oberen Teil einer Deiner Füße auf den Stuhl.\n2. Beuge das vordere Knie und balanciere mit den Armen, bis das hintere Knie fast den Boden berührt\n3. Gehe in die Ausgangsposition zurück und wiederhole.",
    "stepsSideSplitSquats": "1. Stellen Dich aufrecht hin und mache einen weiten Seitenschritt, etwas größer als schulterbreit.\n2. Beuge ein Knie, bis Dein Oberschenkel parallel zum Boden ist. Das gebeugte Knie muss in einer Linie mit dem Fuß stehen.\n3. Gehe in die Ausgangsposition zurück und wiederhole.",
    "stepsSidePlank": "1. Lege Dich auf die Seite, der untere Ellbogen ist rechtwinklig, der Arm ragt heraus.\n2. Hebe das Becken vom Boden ab, indem Du die untere Schulter anhebst und den Unterarm auf dem Boden lässt; Dein Kopf, Dein Becken und Deine Füße sollten sich in einer geraden Linie befinden.\n3. Halte diese Position",
    "stepsArmCircles": "1. Stelle dich mit geradem Rücken aufrecht hin.\n2. Halte die Arme gerade und führen sie vor sich nach unten, hinter den Rücken, dann über den Kopf und zurück in die Ausgangsposition.\n3. Lasse die Arme wie in Schritt 2 beschrieben kreisen.",
    "stepsChairDips": "1.Setze Dich auf die Vorderkante eines Stuhls, Rücken gerade, Hände halten die Vorderkante\n2. Halten Dich mit ausgestreckten Armen an der Stuhlkante fest, hebe Dein Gesäß an und gehe leicht nach vorne, so dass es einige Zentimeter vom Stuhl entfernt ist.\n3. Senke Deinen Körper langsam ab, halte dabei den Rücken gerade, bis die Arme einen rechten Winkel bilden\n4. Hebe Deinen Körper wieder in die vorherige Position, Strecke die Arme\n5. Wiederhole die Schritte 3 und 4",
    "stepsAbCrunches": "1. Lege Dich mit dem Gesicht nach oben mit gebeugten Knien auf den Boden.\n2. Beuge die Schultern zum Becken. Die Hände können hinter oder neben dem Nacken oder gekreuzt über der Brust liegen.\n3. Wiederhole",
    "exerciseStepups": "Steigungen",
    "exerciseJumpRopeBasic": "Seilspringen: Grundsprünge",
    "stepsSplitSquats": "1. Stehe mit aufrechtem Rücken\n2. Machen mit dem linken Bein einen großen Schritt nach vorne\n3. Senken Dein Becken ab, bis Du mit dem rechten Knie fast den Boden berühren\n4. Bringe Dein Becken wieder nach oben\n5. Wiederhole ab Schritt 3.",
    "stepsHighKnees": "1. Laufen Sie auf der Stelle, halte die Knie so hoch wie möglich und wechseln Sie die Beine in einem schnellen Tempo",
    "stepsWallSit": "1. Lehne Dich an die Wand, mit Blick nach vorne und mit den Füßen fest auf dem Boden, schulterbreit auseinander und etwa einen Meter von der Wand entfernt\n2. Rutsche mit dem Rücken an der Wand entlang, bis die Beine einen rechten Winkel bilden. Die Knie sollten direkt über den Knöcheln sein\nSchmerzen im Quadrizeps sind normal, höre auf, wenn Du Schmerzen im Knie oder in der Kniescheibe spürst",
    "exerciseChairDips": "Stuhl Stütze",
    "exerciseArmCircles": "Armkreisen vorwärts",
    "stepsSquats": "1. Stelle Dich mit schulterbreit auseinander stehenden Füßen auf\n2. Bewege die Hüften nach hinten und beuge die Knie und Hüften, um den Oberkörper zu senken\n3. Wiederhole",
    "stepsStepups": "1. Stelle dich vor einen Stuhl\n2. Steige auf den Stuhl.\n3. Steige vom Stuhl ab.\n4. Wiederhole",
    "stepsPushups": "Ausgangsposition:\nStarte mit der Ausgangsposition für Liegestütze, wobei Hände und Zehen den Boden berühren und Arme und Beine gerade sind. Um diese Position zu erreichen, kannst Du Dich auf den Bauch legen, die Hände nach unten neben den Kopf legen und die Arme nach oben heben, bis sie gerade sind.\n\nDie Schritte:\n1. Beuge den Ellbogen, bis die Brust fast den Boden berührt. Achte darauf, dass der Rücken immer gerade ist.\n2. Hebe Dich mit den Armen wieder in die Ausgangsposition.\n3. Wiederhole.",
    "stepsMountainClimbers": "Ausgangsposition:\nBeginne mit der aufrechten Liegestützposition oder mit der hohen Planke.\nDie Hände sollten sich direkt unter Deinen Schultern befinden.\nHalte den Kopf in einer Linie mit dem Rücken und schaue zum Boden.\nDie Füße sollten etwa hüftbreit auseinander stehen.\n\nSchritte:\n1. Bewege ein Knie zur Körpermitte hin zu den Ellenbogen, das andere Bein bleibt gestreckt.\n2. Strecke in einer schnellen Sprungbewegung das gebeugte Bein aus und ziehe das andere Knie zum Körper.\n3. Wiederhole Schritt 2 im Wechsel mit dem anderen Bein.\n\nHinweise:\nWährend der gesamten Übung sollte Dein Rücken möglichst gerade bleiben - vermeide einen Buckel oder einen durchhängenden Rücken.",
    "exerciseMountainClimbers": "Bergsteiger",
    "exerciseReverseLunges": "Umgekehrte Ausfallschritte",
    "exerciseHighPlank": "Hohe Planke",
    "exerciseLegRaises": "Beine heben",
    "exerciseSumoSquat": "Sumo Hocke",
    "exercisePullUp": "Klimmzug",
    "stepsLegRaises": "Ausgangsposition:\nLege Dich auf den Rücken, Füße zusammen, Arme an den Seiten.\n\nSchritte:\n1. Beuge die Knie und strecke sie dann gerade nach oben.\n2. Halte die Beine gerade und senke sie gemeinsam ab, ohne den Boden zu berühren. Je tiefer, desto intensiver ist die Übung.\n3. Hebe beide Beine zusammen an, so dass sie wieder gerade nach oben zeigen.\n4. Wiederholen ab Schritt 2.",
    "stepsSumoSquat": "Ausgangsposition:\nBreitbeiniger Stand mit nach außen gedrehten Zehen.\n\nSchritte:\n1. Sinke langsam nach unten, indem die Knie nach außen gebeugt werden. Arme nach vorne strecken. Halte Kopf, Brust und Hüfte in einer geraden Linie. Spanne die Gesäßmuskeln an.\n2. Bringe Dich wieder in die Ausgangsposition.\n3. Wiederhole diese Übung in einer pulsierenden Bewegung.",
    "exerciseKettlebellDeadlift": "Kettlebell Kreuzheben",
    "exerciseBWShoulderRotation": "Rückwärtsdrehung der Schulter",
    "exerciseFWShoulderRotation": "Vorwärtsdrehung der Schulter",
    "exerciseBackRightNeckStretch": "Rücken und rechter Nacken dehnen",
    "exerciseBackLeftNeckStretch": "Rücken und linker Nacken dehnen",
    "exerciseHeadTurn": "Kopf drehen",
    "exerciseSquatThrusts": "Kniebeugen",
    "workoutNeckShoulderStretch": "Nacken- und Schulterdehnungen",
    "exerciseFrontNeckStretch": "Nackenstütze vorne",
    "exerciseFloorDips": "Bodensenken",
    "exerciseChinTuckFlexionRotation": "Kinnbacken mit Beugung und Drehung",
    "exerciseRightNeckStretch": "Rechte Nackendehnung",
    "exerciseLeftNeckStretch": "Linke Nackendehnung",
    "exerciseNeckFlexion": "Nackendehnung",
    "exerciseBWArmCircles": "Armkreisen rückwärts",
    "stepsBWArmCircles": "1. Stelle Dich aufrecht und mit geradem Rücken hin.\n2. Halte die Arme gerade und führe sie vor dich her, hebe sie über deinen Kopf und führe die Bewegung hinter deinem Rücken bis zur Ausgangsposition fort.\n3. Lasse die Arme wie in Schritt 2 beschrieben kreisen.",
    "stepsSquatThrusts": "Ausgangsposition:\nBeginne in der hohen Plank-Position: Rücken, Arme und Beine sind gestreckt, die Hände sind schulterbreit auseinander.\n\nSchritte:\n1. Springe mit den Füßen zwischen den Armen nach vorne und halte den Rücken flach.\n2. Lasse die Hände auf dem Boden und springe mit den Beinen zurück in die hohe Plank-Position.\n3. Wiederhole die Übung.",
    "exercisePikePushups": "Hecht-Liegestütze",
    "exerciseShoulderShrug": "Schulterzucken"
}
